1 10 20
100 200 125
201 210 89
900 1000 174
1 1 1
1 1000000 525
500 1000 179
200 589666 470
666269 379618 509
201736 853928 525
414679 936543 525
879508 265393 525
464648 315427 449
623125 676622 509
339987 416835 449
995406 121096 525
161062 227672 386
959291 98063 525
721122 541071 509
897444 332215 525
535518 309637 470
507608 196462 449
775627 971312 525
242438 278671 407
14298 629000 509
296216 986225 525
158934 299318 443
179012 103169 383
446963 530665 470
288270 893683 525
897638 924048 476
648319 772236 504
491314 1043 449
167548 1836 383
403417 518711 470
816396 357672 509
557928 532551 452
553114 32186 470
811206 559301 509
184320 162631 365
779463 184817 509
955808 556695 525
848151 997758 507
262049 885848 525
689674 206621 509
731685 863021 525
474177 473960 382
891893 702113 525
158598 604551 470
813040 142877 509
161137 847786 525
550844 807362 509
800382 154762 509
760167 539773 509
813562 443687 509
730596 328213 509
854621 240348 525
706643 898165 525
514492 715984 509
516539 401474 470
514159 699601 509
821643 723823 468
57197 67210 335
466377 886757 525
921444 369251 525
33674 366981 443
740756 533171 509
730340 898671 525
926449 703160 525
881404 851225 432
319696 819468 509
650862 437854 509
714402 336038 509
126690 377599 443
891169 36899 525
458730 118954 449
761311 359869 509
461421 282143 449
154516 932899 525
900631 975180 507
580371 640593 509
300554 869404 525
831306 879367 525
154524 593294 470
32408 708631 509
476065 658452 509
658707 621320 509
26580 993854 525
218715 666505 509
448927 330543 449
652102 161470 509
202259 552736 470
813053 204364 509
378495 342012 441
278347 227081 443
362054 964678 525
445280 192347 449
131495 40330 354
14652 996987 525
695650 331833 509
64557 981201 525
572327 282006 470
427652 99951 449
303742 737525 509
328238 706833 509
972094 554199 525
484951 840502 525
272825 295260 389
152567 850558 525
280568 354912 441
53430 196874 383
927692 251326 525
285631 935221 525
237806 400540 441
53261 634433 509
299431 453478 449
853947 374606 525
601599 34393 470
820157 565791 509
549005 101422 470
827553 164064 509
803202 772001 468
751709 29921 509
737606 680298 504
690249 78143 509
461091 806673 509
963168 263629 525
245559 424606 449
714384 892913 525
987816 979440 427
275384 728181 509
556947 292093 470
104643 289385 443
328127 83194 443
609690 482742 470
799938 408183 509
471573 802587 509
219046 719409 509
808706 184683 509
812397 351691 509
851266 550444 525
429389 735063 509
474016 157442 449
627272 806146 504
195781 669659 509
682194 548546 509
236786 916490 525
598486 718151 509
198551 488563 449
247988 158299 443
397776 183384 443
9069 428364 449
331392 181840 443
714824 586946 509
182451 45794 383
251796 481597 449
763502 968559 525
278419 825736 509
919798 917873 432
