1 10 20
100 200 125
201 210 89
900 1000 174
93 8621 262
2784 2527 191
2275 3779 238
7231 2330 262
4937 6580 262
4219 7509 262
6556 6644 244
548 81 144
5421 1628 238
3247 4803 238
6320 2872 262
221 8464 262
5474 1376 238
7739 9337 260
4663 1930 238
5521 9322 262
4519 1709 238
4321 7964 262
3383 5912 238
2803 2769 160
3973 2152 238
7158 3738 262
7207 5038 262
5374 9095 262
4990 4712 210
592 6985 262
5495 6636 262
2094 1596 180
935 7557 262
3316 2027 217
7423 4375 262
2682 8301 262
7891 9608 260
895 6207 262
394 1006 179
3304 4686 238
1981 1421 180
3245 2569 217
6403 5645 262
6409 659 262
2444 9220 262
563 6533 262
7048 3916 262
4799 3594 238
698 1953 182
5583 9700 262
929 8930 262
3055 5345 238
1779 769 182
4210 2337 238
7911 8432 252
2789 525 209
5260 6351 262
4968 6325 262
502 8192 262
6782 7382 257
5852 9615 262
3049 5181 238
2948 5578 238
7156 4408 262
984 9877 262
3615 8028 262
14 9605 262
4500 901 238
2455 656 183
5803 3930 236
7035 6469 257
4346 254 238
6028 9998 262
3843 6015 236
6651 3514 262
3304 8802 262
6243 4468 262
3615 8190 262
1331 8762 262
2947 9599 262
6707 9254 257
7759 583 262
2273 6903 262
5839 5950 218
7281 6402 257
5818 6720 262
1137 2883 209
662 5171 238
6030 3184 238
622 5079 238
2575 8059 262
1680 9811 262
704 9048 262
1115 2093 182
4850 5539 210
7654 4324 262
3290 5743 238
5597 5239 236
6375 5665 262
2997 1055 217
6403 9195 257
4876 2499 238
553 3856 238
2340 6214 262
