1 10 20
100 200 125
201 210 89
900 1000 174
104495 486048 449
186646 440368 449
163788 274512 443
140515 193446 383
63106 348865 443
82299 380871 443
128467 183594 383
127542 396184 443
19912 194198 383
480190 483289 413
296174 482788 449
226330 324701 443
140972 439097 449
347106 351321 366
126681 479999 449
57467 435677 449
177079 350181 443
362642 381569 423
99266 485771 449
204621 273414 443
227267 284365 443
130902 396325 443
346728 357576 379
306466 460194 449
163926 260016 443
49278 239268 443
196717 335650 443
80622 389534 443
108252 497538 449
38976 196498 383
148881 167084 383
251353 312692 407
10608 30761 308
445858 456955 387
242159 267925 407
180860 262177 443
170069 428509 449
257867 395378 441
48904 177747 383
182805 287557 443
9920 462036 449
252392 435601 449
208882 419492 449
192287 315338 443
273886 453316 449
53498 178927 383
24186 442290 449
302853 494805 449
405276 486589 449
93915 373375 443
33 4 112
4 6 9
168 100 122
55 168 122
40 125 119
24 55 113
72 51 113
60 69 108
50 25 112
138 48 122
45 20 112
24 20 16
48 160 122
102 56 119
170 105 122
132 192 125
168 54 122
57 125 119
120 11 119
13 75 116
6 42 112
65 120 119
40 60 113
48 45 105
171 30 125
20 4 21
52 13 112
126 28 119
70 75 116
84 18 116
112 150 122
42 95 116
144 16 122
34 42 110
18 45 112
30 50 110
88 140 122
91 2 116
32 30 107
92 54 116
60 66 108
70 42 113
20 63 113
38 8 112
92 90 93
70 4 113
77 48 116
90 200 125
125 8 119
18 170 122
4000 11000 268
1000 18000 279
2000 76000 340
3000 91000 351
4000 29000 308
5000 103000 351
6000 87000 351
7000 30000 308
8000 47000 324
9000 62000 340
10000 28000 308
11000 59000 340
12000 54000 340
13000 113000 354
14000 98000 351
15000 48000 324
16000 69000 340
17000 102000 351
18000 53000 340
19000 113000 354
20000 50000 324
21000 50000 324
22000 25000 282
23000 91000 351
24000 101000 351
25000 101000 351
26000 53000 340
27000 47000 324
28000 77000 340
29000 67000 340
30000 59000 340
31000 96000 351
32000 59000 340
33000 111000 354
34000 112000 354
35000 73000 340
36000 87000 351
37000 131000 354
38000 129000 354
39000 139000 354
40000 86000 351
41000 68000 340
42000 123000 354
43000 53000 340
44000 82000 351
45000 140000 354
46000 67000 340
47000 141000 354
48000 132000 354
49000 71000 340
30000 6000 308
36000 1000 324
56000 2000 340
16000 3000 276
15000 4000 276
65000 5000 340
60000 6000 340
19000 7000 279
16000 8000 276
40000 9000 324
39000 10000 324
42000 11000 324
68000 12000 340
19000 13000 279
110000 14000 354
39000 15000 324
19000 16000 279
79000 17000 351
110000 18000 354
47000 19000 324
55000 20000 340
118000 21000 354
94000 22000 351
30000 23000 308
119000 24000 354
53000 25000 340
47000 26000 324
105000 27000 351
33000 28000 285
36000 29000 324
113000 30000 354
122000 31000 354
51000 32000 324
82000 33000 351
92000 34000 351
44000 35000 324
107000 36000 354
121000 37000 354
135000 38000 354
69000 39000 340
111000 40000 354
74000 41000 340
131000 42000 354
82000 43000 351
68000 44000 340
99000 45000 351
