.............
----------------------------------------------------------------------
Ran 13 tests in 0.109s

OK
Name             Stmts   Miss Branch BrPart  Cover   Missing
------------------------------------------------------------
Collatz.py          56      0     20      0   100%
TestCollatz.py      58      0      0      0   100%
------------------------------------------------------------
TOTAL              114      0     20      0   100%
