1 10 20
100 200 125
201 210 89
900 1000 174
1 100000 351
1 200000 383
1 300000 443
1 999999 525
250000 500000 449
141168 202288 383
795563 487736 509
761797 241922 509
414953 688768 509
554834 242685 470
43173 637916 509
346532 333433 441
948205 43445 525
146444 190961 383
448569 65003 449
798581 450817 509
350927 167824 443
862468 931670 476
985119 907984 507
112564 960231 525
823395 342741 509
349454 302953 441
673404 13008 509
976393 435580 525
636356 404335 509
340569 379241 441
216567 508307 449
438927 366992 449
543352 679609 509
798699 418574 509
62438 999675 525
576713 481454 470
303662 925383 525
901556 682802 525
455112 253829 449
702263 491097 509
64340 993202 525
996979 232446 525
762146 183608 509
285547 995356 525
260914 581171 470
798619 55229 509
981685 874885 507
290402 78862 443
78144 83029 338
433182 222864 449
363407 566291 470
913996 410729 525
258206 72032 443
227887 581349 470
586334 218301 470
380424 415098 449
212818 420480 449
963209 79711 525
847019 351268 525
40739 373592 443
846263 911454 476
485703 82269 449
90797 209197 383
645224 927308 525
327903 200997 443
721763 597954 509
757263 750370 424
476394 723382 509
866556 190280 525
563204 187605 470
835955 151955 509
882298 483864 525
624519 810202 509
287260 993968 525
888431 132763 525
744559 282088 509
76021 539732 470
44521 651737 509
102897 651431 509
915976 573113 525
37561 163974 383
952469 677808 525
408004 945473 525
662198 686127 442
134178 936595 525
893317 46104 525
158051 494020 449
725522 566802 509
119881 316569 443
574735 450257 470
295818 242228 407
94170 194009 383
696510 301005 509
797262 611823 509
838101 547807 525
195451 93287 383
579827 600952 434
892155 969075 507
877099 480201 525
198702 748597 509
394923 503198 449
723870 645806 504
434424 664810 509
47312 319697 443
547678 321976 470
381515 642677 509
135248 678794 509
291582 656217 509
382635 311758 441
