...................
----------------------------------------------------------------------
Ran 19 tests in 0.084s

OK
Name             Stmts   Miss Branch BrPart  Cover   Missing
------------------------------------------------------------
Collatz.py          60      2     38      2    96%   146, 151, 145->146, 150->151
TestCollatz.py      80      0      0      0   100%
------------------------------------------------------------
TOTAL              140      2     38      2    98%
